com\bank\peertopeercurrencyexchange\model\ProcessedOrders.class
com\bank\peertopeercurrencyexchange\dao\UserOrderDAO.class
com\bank\peertopeercurrencyexchange\config\MVCConfig.class
com\bank\peertopeercurrencyexchange\controller\OrderController.class
com\bank\peertopeercurrencyexchange\config\WebAppInitializer.class
com\bank\peertopeercurrencyexchange\dao\ProcessedOrderDAO.class
com\bank\peertopeercurrencyexchange\service\UserOderServiceImpl.class
com\bank\peertopeercurrencyexchange\service\UserOrderService.class
com\bank\peertopeercurrencyexchange\dao\UserOrderDAOImpl.class
com\bank\peertopeercurrencyexchange\service\ProcessedOrderService.class
com\bank\peertopeercurrencyexchange\dao\ProcessedOrderDAOImpl.class
com\bank\peertopeercurrencyexchange\model\UserOrder.class
com\bank\peertopeercurrencyexchange\model\ProcessedOrderList.class
